wsj_0430
wsj_0600
wsj_0601
wsj_0603
wsj_0604
wsj_0605
wsj_0608
wsj_0609
wsj_0611
wsj_0612
wsj_0613
wsj_0614
wsj_0615
wsj_0617
wsj_0618
wsj_0619
wsj_0620
wsj_0621
wsj_0622
wsj_0624
wsj_0625
wsj_0626
wsj_0628
wsj_0629
wsj_0630
wsj_0631
wsj_0633
wsj_0634
wsj_0635
wsj_0636
wsj_0637
wsj_0638
wsj_0639
wsj_0640
wsj_0642
wsj_0643
wsj_0645
wsj_0646
wsj_0647
wsj_0648
wsj_0649
wsj_0650
wsj_0651
wsj_0652
wsj_0653
wsj_0656
wsj_0657
wsj_0658
wsj_0659
wsj_0660
wsj_0662
wsj_0663
wsj_0664
wsj_0665
wsj_0668
wsj_0669
wsj_0670
wsj_0671
wsj_0672
wsj_0673
wsj_0674
wsj_0675
wsj_0676
wsj_0677
wsj_0678
wsj_0679
wsj_0680
wsj_0681
wsj_0682
wsj_0683
wsj_0685
wsj_0686
wsj_0687
wsj_0688
wsj_0690
wsj_0691
wsj_0692
wsj_0693
wsj_0694
wsj_0695
wsj_0696
wsj_0698
wsj_0699
wsj_0764
wsj_0766
wsj_0778
wsj_1101
wsj_1102
wsj_1103
wsj_1104
wsj_1105
wsj_1106
wsj_1107
wsj_1108
wsj_1109
wsj_1110
wsj_1112
wsj_1114
wsj_1115
wsj_1116
wsj_1117
wsj_1118
wsj_1119
wsj_1120
wsj_1121
wsj_1122
wsj_1123
wsj_1124
wsj_1127
wsj_1128
wsj_1130
wsj_1131
wsj_1132
wsj_1133
wsj_1134
wsj_1135
wsj_1136
wsj_1137
wsj_1138
wsj_1139
wsj_1143
wsj_1144
wsj_1145
wsj_1147
wsj_1149
wsj_1150
wsj_1151
wsj_1152
wsj_1153
wsj_1154
wsj_1155
wsj_1156
wsj_1157
wsj_1158
wsj_1159
wsj_1160
wsj_1162
wsj_1163
wsj_1164
wsj_1165
wsj_1166
wsj_1167
wsj_1168
wsj_1170
wsj_1171
wsj_1172
wsj_1173
wsj_1174
wsj_1175
wsj_1176
wsj_1177
wsj_1178
wsj_1179
wsj_1180
wsj_1181
wsj_1182
wsj_1184
wsj_1185
wsj_1186
wsj_1187
wsj_1188
wsj_1190
wsj_1191
wsj_1192
wsj_1193
wsj_1194
wsj_1195
wsj_1196
wsj_1199
wsj_1300
wsj_1301
wsj_1302
wsj_1303
wsj_1304
wsj_1305
wsj_1308
wsj_1309
wsj_1310
wsj_1311
wsj_1312
wsj_1313
wsj_1314
wsj_1315
wsj_1316
wsj_1317
wsj_1318
wsj_1319
wsj_1320
wsj_1321
wsj_1322
wsj_1323
wsj_1324
wsj_1326
wsj_1327
wsj_1328
wsj_1329
wsj_1330
wsj_1332
wsj_1334
wsj_1335
wsj_1336
wsj_1337
wsj_1338
wsj_1339
wsj_1340
wsj_1341
wsj_1342
wsj_1343
wsj_1344
wsj_1345
wsj_1347
wsj_1348
wsj_1349
wsj_1350
wsj_1351
wsj_1353
wsj_1355
wsj_1356
wsj_1357
wsj_1358
wsj_1359
wsj_1360
wsj_1361
wsj_1362
wsj_1364
wsj_1366
wsj_1367
wsj_1368
wsj_1369
wsj_1370
wsj_1371
wsj_1372
wsj_1373
wsj_1374
wsj_1375
wsj_1377
wsj_1378
wsj_1379
wsj_1381
wsj_1382
wsj_1383
wsj_1384
wsj_1385
wsj_1388
wsj_1389
wsj_1390
wsj_1391
wsj_1392
wsj_1393
wsj_1394
wsj_1395
wsj_1396
wsj_1397
wsj_1398
wsj_1924
wsj_1930
wsj_1931
wsj_1934
wsj_1944
wsj_1962
wsj_1963
wsj_1970
wsj_1974
wsj_1976
wsj_1980
wsj_1983
wsj_1984
wsj_1985
wsj_1988
wsj_1992
wsj_1997
wsj_1998
wsj_1999
wsj_2172
wsj_2303
wsj_2308
wsj_2309
wsj_2315
wsj_2316
wsj_2317
wsj_2320
wsj_2321
wsj_2322
wsj_2325
wsj_2326
wsj_2327
wsj_2328
wsj_2329
wsj_2331
wsj_2332
wsj_2338
wsj_2339
wsj_2340
wsj_2341
wsj_2342
wsj_2343
wsj_2344
wsj_2345
wsj_2346
wsj_2347
wsj_2348
wsj_2349
wsj_2350
wsj_2352
wsj_2353
wsj_2356
wsj_2358
wsj_2359
wsj_2362
wsj_2363
wsj_2364
wsj_2365
wsj_2366
wsj_2367
wsj_2380
wsj_2382
wsj_2383
wsj_2393
wsj_2394
wsj_2395
wsj_2396
wsj_2399
