maz-15155
maz-9335
maz-4181
maz-13153
maz-4403
maz-3073
maz-16360
maz-19372
maz-8288
maz-10175
maz-8586
maz-1757
maz-17062
maz-1423
maz-13915
maz-15702
maz-15209
maz-19442
maz-4636
maz-00001
maz-9782
maz-6165
maz-11177
maz-18006
maz-11544
maz-10207
maz-5715
maz-18750
maz-6993
maz-16250
maz-11507
maz-18354
maz-15347
maz-11766
maz-5039
maz-14881
maz-9650
maz-11299
maz-00002
maz-16153
maz-9538
maz-13125
maz-4031
maz-12510
maz-10575
maz-5012
maz-12473
maz-14055
maz-5144
maz-5932
maz-9612
maz-4794
maz-14047
maz-6918
maz-19074
maz-18712
maz-19150
maz-8509
maz-13946
maz-15545
maz-7053
maz-5876
maz-17953
maz-17706
maz-11279
maz-9891
maz-13507
maz-9207
maz-8563
maz-5701
maz-18377
maz-8838
maz-3110
maz-1679
maz-19295
maz-17698
maz-16590
maz-8665
maz-13758
maz-3367
maz-3277
maz-10423
maz-14841
maz-14590
maz-12976
maz-14853
maz-18171
maz-2609
maz-14792
maz-3377
maz-10374
maz-5297
maz-13015
maz-16177
maz-12383
maz-17300
maz-8981
maz-11280
maz-9884
maz-3415
maz-14071
maz-18945
maz-18480
maz-4282
maz-6046
maz-3080
maz-15734
maz-12188
maz-18912
maz-11670
maz-10652
